@startuml

actor Client
entity Hapi
entity Metaweather



group API:  GET "/weather/locationsearch"

Client -> Hapi+ : GET "/weather/locationsearch"

group **processor 1**
|||
Hapi -> Hapi+ : __weatherLocationSearch__ //[api]//   **processor**

Hapi -> Hapi : location = ${//request.query.location//}

Hapi -> Metaweather+ : **GET**: https://www.metaweather.com/api/location/search
note right
**params**: {
  "query": "${//location//}"
}
end note
|||
Hapi <-- Metaweather-
deactivate Hapi
end group processor 1

Hapi --> Client- : response

end group

@enduml
