@startuml

actor Client
entity Hapi
entity Spotify

group API:  POST "/spotify/playlists"

Client -> Hapi+ : POST "/spotify/playlists"
group **processor 1**
|||
Hapi -> Hapi+ : __spotifyMe__ //[api]//   **processor**
Hapi --> Hapi : spotifyToken = ${//request.headers.spotifytoken//}
Hapi -> Spotify+ : **GET**: https://api.spotify.com/v1/me
note right
**header**: {
  "Authorization": Bearer ${//spotifyToken//}
}
end note
Hapi <-- Spotify-
deactivate Hapi
end group processor 1
|||
group **processor 2**
|||
Hapi -> Hapi+ : __postPlaylist__ //[api]//   **processor**
Hapi --> Hapi : spotifyToken = ${//request.headers.spotifytoken//}
Hapi --> Hapi : playlistInfo = ${//request.body//}
Hapi -> Spotify+ : **POST**: https://api.spotify.com/v1/users/${userId}/playlists
note right
**header**: {
  "Authorization": Bearer ${//spotifyToken//}
}

**body**: {$//playlistInfo//}
end note
Hapi <-- Spotify-
deactivate Hapi
end group processor 2
|||
group **Processor 3**
Hapi -> Hapi+ : __aggregator__ //[transformer]//  **processor**
Client <-- Hapi- : response
note right #lightblue: aggregator
note left
**body**: {
  "id": ${//postPlaylist.body.id//}
  "name": ${//postPlaylist.body.name//}
  "description": ${//postPlaylist.body.name//}
  "tracks": ${//postPlaylist.body.tracks//}
}
end note
|||
end group Processor 3
deactivate Hapi

Client <-- Hapi
|||
deactivate Hapi
|||
end group API
@enduml
